<!-- Created with Inkscape (http://www.inkscape.org/) --><svg xmlns:ns1="https://launchpad.net/jessyink" xmlns:dc="http://purl.org/dc/elements/1.1/" xmlns:cc="http://creativecommons.org/ns#" xmlns:rdf="http://www.w3.org/1999/02/22-rdf-syntax-ns#" xmlns:svg="http://www.w3.org/2000/svg" xmlns="http://www.w3.org/2000/svg" xmlns:xlink="http://www.w3.org/1999/xlink" xmlns:sodipodi="http://sodipodi.sourceforge.net/DTD/sodipodi-0.dtd" xmlns:inkscape="http://www.inkscape.org/namespaces/inkscape" width="1000" height="1000" viewBox="0 0 1000 1000" version="1.1" id="svg8" inkscape:version="0.92.4 5da689c313, 2019-01-14" sodipodi:docname="test.svg">
  <defs id="defs33">
    <marker inkscape:stockid="Arrow2Lstart" orient="auto" refY="0.0" refX="0.0" id="Arrow2Lstart" style="overflow:visible" inkscape:isstock="true">
      <path id="path859" style="fill-rule:evenodd;stroke-width:0.625;stroke-linejoin:round;stroke:#000000;stroke-opacity:1;fill:#000000;fill-opacity:1" d="M 8.7185878,4.0337352 L -2.2072895,0.016013256 L 8.7185884,-4.0017078 C 6.9730900,-1.6296469 6.9831476,1.6157441 8.7185878,4.0337352 z " transform="scale(1.1) translate(1,0)"/>
    </marker>
  </defs>
  <sodipodi:namedview pagecolor="#ffffff" bordercolor="#666666" borderopacity="1" objecttolerance="10" gridtolerance="10" guidetolerance="10" inkscape:pageopacity="0" inkscape:pageshadow="2" inkscape:window-width="1920" inkscape:window-height="1017" id="base" showgrid="true" inkscape:snap-text-baseline="true" inkscape:zoom="0.6675088" inkscape:cx="202.7349" inkscape:cy="481.16986" inkscape:window-x="0" inkscape:window-y="0" inkscape:window-maximized="1" inkscape:current-layer="webslicer-layer">
    <inkscape:grid type="xygrid" id="grid27" spacingx="10" spacingy="10" empspacing="10" color="#8080ff" opacity="0.25098039" empcolor="#0000ff" empopacity="0.25098039"/>
  </sodipodi:namedview>
  <g inkscape:groupmode="layer" id="webslicer-layer" inkscape:label="Slide3" style="display:inline">
    <rect height="201.49811" width="248.69112" y="353.92661" x="651.3089" id="slicerect1" style="opacity:0.5;fill:#ff0000;stroke-width:1.11927199">
      <desc id="desc51">format: png
dpi: 96
layout-disposition: bg-el-norepeat
layout-position-anchor: tl</desc>
    </rect>
  <svg:g transform="translate(-434.78725,69.112709)" ns1:element="core.video">
      <svg:linearGradient inkscape:collect="always" xlink:href="#jessyink.core.video786798" x1="254.72079" y1="615.9538" x2="317.50601" y2="661.42786" gradientUnits="userSpaceOnUse" id="jessyink.core.video786901"/>
  <svg:linearGradient inkscape:collect="always" xlink:href="#jessyink.core.video786798" x1="252.90028" y1="515.85352" x2="319.14331" y2="564.18585" gradientUnits="userSpaceOnUse" id="jessyink.core.video786847"/>
    <svg:linearGradient id="jessyink.core.video786798">
      <svg:stop style="stop-color:#ffffff;stop-opacity:1;" offset="0"/>
      <svg:stop style="stop-color:#bebebe;stop-opacity:1;" offset="1"/>
    </svg:linearGradient>
    <svg:linearGradient inkscape:collect="always" xlink:href="#jessyink.core.video786798" x1="255.21498" y1="420.35464" x2="322.05756" y2="475.00314" gradientUnits="userSpaceOnUse" id="jessyink.core.video786718"/>
    <ns1:video/>
      <svg:rect style="fill:#b3b3b3;fill-opacity:1;stroke:none" width="400" height="250" x="767.70032" y="198.79166" rx="0" ry="0" ns1:video="rect" transform="matrix(0.99999932,-0.00116615,0.00116615,0.99999932,0,0)"/>
      <svg:rect style="font-size:20px;fill:#dfdfdf;fill-opacity:1;stroke:#000000;stroke-width:3.48164916;stroke-miterlimit:4;stroke-opacity:1;stroke-dasharray:none" width="388.22516" height="75.056519" x="737.79498" y="175.88173" rx="12" ry="11.999999" sodipodi:insensitive="true"/>
      <svg:text xml:space="preserve" style="font-size:14px;font-style:normal;font-variant:normal;font-weight:normal;font-stretch:normal;text-align:start;line-height:125%;writing-mode:lr-tb;text-anchor:start;fill:#000000;fill-opacity:1;stroke:none;font-family:Sans;-inkscape-font-specification:Sans" x="788.77039" y="234.86638" sodipodi:linespacing="125%"><svg:tspan sodipodi:role="line" x="788.77039" y="234.86638" ns1:video="url">&lt;replace this text with the url of the movie&gt;</svg:tspan></svg:text>
      <svg:g transform="matrix(0.35587188,0.26994219,-0.26994219,0.35587188,800.78552,-70.706091)" sodipodi:insensitive="true">
        <svg:path style="fill:#000000;fill-opacity:1;stroke:none" d="m 209.78125,112.53125 0,290.65625 5.25,0 0,-4.21875 c 0,-1.84245 1.5013,-3.34375 3.34375,-3.34375 l 8.34375,0 c 1.84245,0 3.3125,1.5013 3.3125,3.34375 l 0,4.21875 113,0 0,-4.21875 c 0,-1.84245 1.5013,-3.34375 3.34375,-3.34375 l 8.34375,0 c 1.84245,0 3.3125,1.5013 3.3125,3.34375 l 0,4.21875 5.03125,0 0,-290.65625 -5.03125,0 0,3.34375 c 0,1.84245 -1.47005,3.3125 -3.3125,3.3125 l -8.34375,0 c -1.84245,0 -3.34375,-1.47005 -3.34375,-3.3125 l 0,-3.34375 -113,0 0,3.34375 c 0,1.84245 -1.47005,3.3125 -3.3125,3.3125 l -8.34375,0 c -1.84245,0 -3.34375,-1.47005 -3.34375,-3.3125 l 0,-3.34375 -5.25,0 z m 8.59375,13.09375 8.34375,0 c 1.84245,0 3.3125,1.5013 3.3125,3.34375 l 0,6.1875 c 0,1.84245 -1.47005,3.34375 -3.3125,3.34375 l -8.34375,0 c -1.84245,0 -3.34375,-1.5013 -3.34375,-3.34375 l 0,-6.1875 c 0,-1.84245 1.5013,-3.34375 3.34375,-3.34375 z m 128,0 8.34375,0 c 1.84245,0 3.3125,1.5013 3.3125,3.34375 l 0,6.1875 c 0,1.84245 -1.47005,3.34375 -3.3125,3.34375 l -8.34375,0 c -1.84245,0 -3.34375,-1.5013 -3.34375,-3.34375 l 0,-6.1875 c 0,-1.84245 1.5013,-3.34375 3.34375,-3.34375 z m -128,19.28125 8.34375,0 c 1.84245,0 3.3125,1.5013 3.3125,3.34375 l 0,6.1875 c 0,1.84245 -1.47005,3.34375 -3.3125,3.34375 l -8.34375,0 c -1.84245,0 -3.34375,-1.5013 -3.34375,-3.34375 l 0,-6.1875 c 0,-1.84245 1.5013,-3.34375 3.34375,-3.34375 z m 128,0 8.34375,0 c 1.84245,0 3.3125,1.5013 3.3125,3.34375 l 0,6.1875 c 0,1.84245 -1.47005,3.34375 -3.3125,3.34375 l -8.34375,0 c -1.84245,0 -3.34375,-1.5013 -3.34375,-3.34375 l 0,-6.1875 c 0,-1.84245 1.5013,-3.34375 3.34375,-3.34375 z m -128,19.28125 8.34375,0 c 1.84245,0 3.3125,1.5013 3.3125,3.34375 l 0,6.1875 c 0,1.84245 -1.47005,3.34375 -3.3125,3.34375 l -8.34375,0 c -1.84245,0 -3.34375,-1.5013 -3.34375,-3.34375 l 0,-6.1875 c 0,-1.84245 1.5013,-3.34375 3.34375,-3.34375 z m 128,0 8.34375,0 c 1.84245,0 3.3125,1.5013 3.3125,3.34375 l 0,6.1875 c 0,1.84245 -1.47005,3.34375 -3.3125,3.34375 l -8.34375,0 c -1.84245,0 -3.34375,-1.5013 -3.34375,-3.34375 l 0,-6.1875 c 0,-1.84245 1.5013,-3.34375 3.34375,-3.34375 z m -128,19.3125 8.34375,0 c 1.84245,0 3.3125,1.47005 3.3125,3.3125 l 0,6.21875 c 0,1.84245 -1.47005,3.3125 -3.3125,3.3125 l -8.34375,0 c -1.84245,0 -3.34375,-1.47005 -3.34375,-3.3125 l 0,-6.21875 c 0,-1.84245 1.5013,-3.3125 3.34375,-3.3125 z m 128,0 8.34375,0 c 1.84245,0 3.3125,1.47005 3.3125,3.3125 l 0,6.21875 c 0,1.84245 -1.47005,3.3125 -3.3125,3.3125 l -8.34375,0 c -1.84245,0 -3.34375,-1.47005 -3.34375,-3.3125 l 0,-6.21875 c 0,-1.84245 1.5013,-3.3125 3.34375,-3.3125 z m -128,19.28125 8.34375,0 c 1.84245,0 3.3125,1.47005 3.3125,3.3125 l 0,6.21875 c 0,1.84245 -1.47005,3.3125 -3.3125,3.3125 l -8.34375,0 c -1.84245,0 -3.34375,-1.47005 -3.34375,-3.3125 l 0,-6.21875 c 0,-1.84245 1.5013,-3.3125 3.34375,-3.3125 z m 128,0 8.34375,0 c 1.84245,0 3.3125,1.47005 3.3125,3.3125 l 0,6.21875 c 0,1.84245 -1.47005,3.3125 -3.3125,3.3125 l -8.34375,0 c -1.84245,0 -3.34375,-1.47005 -3.34375,-3.3125 l 0,-6.21875 c 0,-1.84245 1.5013,-3.3125 3.34375,-3.3125 z m -128,19.28125 8.34375,0 c 1.84245,0 3.3125,1.47005 3.3125,3.3125 l 0,6.21875 c 0,1.84245 -1.47005,3.3125 -3.3125,3.3125 l -8.34375,0 c -1.84245,0 -3.34375,-1.47005 -3.34375,-3.3125 l 0,-6.21875 c 0,-1.84245 1.5013,-3.3125 3.34375,-3.3125 z m 128,0 8.34375,0 c 1.84245,0 3.3125,1.47005 3.3125,3.3125 l 0,6.21875 c 0,1.84245 -1.47005,3.3125 -3.3125,3.3125 l -8.34375,0 c -1.84245,0 -3.34375,-1.47005 -3.34375,-3.3125 l 0,-6.21875 c 0,-1.84245 1.5013,-3.3125 3.34375,-3.3125 z m -128,19.28125 8.34375,0 c 1.84245,0 3.3125,1.47005 3.3125,3.3125 l 0,6.21875 c 0,1.84245 -1.47005,3.3125 -3.3125,3.3125 l -8.34375,0 c -1.84245,0 -3.34375,-1.47005 -3.34375,-3.3125 l 0,-6.21875 c 0,-1.84245 1.5013,-3.3125 3.34375,-3.3125 z m 128,0 8.34375,0 c 1.84245,0 3.3125,1.47005 3.3125,3.3125 l 0,6.21875 c 0,1.84245 -1.47005,3.3125 -3.3125,3.3125 l -8.34375,0 c -1.84245,0 -3.34375,-1.47005 -3.34375,-3.3125 l 0,-6.21875 c 0,-1.84245 1.5013,-3.3125 3.34375,-3.3125 z m -128,19.28125 8.34375,0 c 1.84245,0 3.3125,1.5013 3.3125,3.34375 l 0,6.1875 c 0,1.84245 -1.47005,3.34375 -3.3125,3.34375 l -8.34375,0 c -1.84245,0 -3.34375,-1.5013 -3.34375,-3.34375 l 0,-6.1875 c 0,-1.84245 1.5013,-3.34375 3.34375,-3.34375 z m 128,0 8.34375,0 c 1.84245,0 3.3125,1.5013 3.3125,3.34375 l 0,6.1875 c 0,1.84245 -1.47005,3.34375 -3.3125,3.34375 l -8.34375,0 c -1.84245,0 -3.34375,-1.5013 -3.34375,-3.34375 l 0,-6.1875 c 0,-1.84245 1.5013,-3.34375 3.34375,-3.34375 z m -128,19.28125 8.34375,0 c 1.84245,0 3.3125,1.5013 3.3125,3.34375 l 0,6.1875 c 0,1.84245 -1.47005,3.34375 -3.3125,3.34375 l -8.34375,0 c -1.84245,0 -3.34375,-1.5013 -3.34375,-3.34375 l 0,-6.1875 c 0,-1.84245 1.5013,-3.34375 3.34375,-3.34375 z m 128,0 8.34375,0 c 1.84245,0 3.3125,1.5013 3.3125,3.34375 l 0,6.1875 c 0,1.84245 -1.47005,3.34375 -3.3125,3.34375 l -8.34375,0 c -1.84245,0 -3.34375,-1.5013 -3.34375,-3.34375 l 0,-6.1875 c 0,-1.84245 1.5013,-3.34375 3.34375,-3.34375 z m -128,19.28125 8.34375,0 c 1.84245,0 3.3125,1.5013 3.3125,3.34375 l 0,6.1875 c 0,1.84245 -1.47005,3.34375 -3.3125,3.34375 l -8.34375,0 c -1.84245,0 -3.34375,-1.5013 -3.34375,-3.34375 l 0,-6.1875 c 0,-1.84245 1.5013,-3.34375 3.34375,-3.34375 z m 128,0 8.34375,0 c 1.84245,0 3.3125,1.5013 3.3125,3.34375 l 0,6.1875 c 0,1.84245 -1.47005,3.34375 -3.3125,3.34375 l -8.34375,0 c -1.84245,0 -3.34375,-1.5013 -3.34375,-3.34375 l 0,-6.1875 c 0,-1.84245 1.5013,-3.34375 3.34375,-3.34375 z m -128,19.3125 8.34375,0 c 1.84245,0 3.3125,1.47005 3.3125,3.3125 l 0,6.21875 c 0,1.84245 -1.47005,3.3125 -3.3125,3.3125 l -8.34375,0 c -1.84245,0 -3.34375,-1.47005 -3.34375,-3.3125 l 0,-6.21875 c 0,-1.84245 1.5013,-3.3125 3.34375,-3.3125 z m 128,0 8.34375,0 c 1.84245,0 3.3125,1.47005 3.3125,3.3125 l 0,6.21875 c 0,1.84245 -1.47005,3.3125 -3.3125,3.3125 l -8.34375,0 c -1.84245,0 -3.34375,-1.47005 -3.34375,-3.3125 l 0,-6.21875 c 0,-1.84245 1.5013,-3.3125 3.34375,-3.3125 z m -128,19.28125 8.34375,0 c 1.84245,0 3.3125,1.47005 3.3125,3.3125 l 0,6.21875 c 0,1.84245 -1.47005,3.3125 -3.3125,3.3125 l -8.34375,0 c -1.84245,0 -3.34375,-1.47005 -3.34375,-3.3125 l 0,-6.21875 c 0,-1.84245 1.5013,-3.3125 3.34375,-3.3125 z m 128,0 8.34375,0 c 1.84245,0 3.3125,1.47005 3.3125,3.3125 l 0,6.21875 c 0,1.84245 -1.47005,3.3125 -3.3125,3.3125 l -8.34375,0 c -1.84245,0 -3.34375,-1.47005 -3.34375,-3.3125 l 0,-6.21875 c 0,-1.84245 1.5013,-3.3125 3.34375,-3.3125 z m -128,19.28125 8.34375,0 c 1.84245,0 3.3125,1.47005 3.3125,3.3125 l 0,6.21875 c 0,1.84245 -1.47005,3.3125 -3.3125,3.3125 l -8.34375,0 c -1.84245,0 -3.34375,-1.47005 -3.34375,-3.3125 l 0,-6.21875 c 0,-1.84245 1.5013,-3.3125 3.34375,-3.3125 z m 128,0 8.34375,0 c 1.84245,0 3.3125,1.47005 3.3125,3.3125 l 0,6.21875 c 0,1.84245 -1.47005,3.3125 -3.3125,3.3125 l -8.34375,0 c -1.84245,0 -3.34375,-1.47005 -3.34375,-3.3125 l 0,-6.21875 c 0,-1.84245 1.5013,-3.3125 3.34375,-3.3125 z m -128,19.28125 8.34375,0 c 1.84245,0 3.3125,1.47005 3.3125,3.3125 l 0,6.21875 c 0,1.84245 -1.47005,3.3125 -3.3125,3.3125 l -8.34375,0 c -1.84245,0 -3.34375,-1.47005 -3.34375,-3.3125 l 0,-6.21875 c 0,-1.84245 1.5013,-3.3125 3.34375,-3.3125 z m 128,0 8.34375,0 c 1.84245,0 3.3125,1.47005 3.3125,3.3125 l 0,6.21875 c 0,1.84245 -1.47005,3.3125 -3.3125,3.3125 l -8.34375,0 c -1.84245,0 -3.34375,-1.47005 -3.34375,-3.3125 l 0,-6.21875 c 0,-1.84245 1.5013,-3.3125 3.34375,-3.3125 z" transform="translate(0,284.36221)"/>
        <svg:rect style="fill:url(#jessyink.core.video786718);fill-opacity:1;stroke:none" width="101.48179" height="82.622345" x="235.6795" y="405.14673"/>
        <svg:rect style="fill:url(#jessyink.core.video786847);fill-opacity:1;stroke:none" width="101.48179" height="82.622345" x="235.6795" y="501.14676"/>
        <svg:rect y="597.14679" x="235.6795" height="82.622345" width="101.48179" style="fill:url(#jessyink.core.video786901);fill-opacity:1;stroke:none"/>
      </svg:g>
      <svg:text xml:space="preserve" style="font-size:20px;font-style:normal;font-variant:normal;font-weight:bold;font-stretch:normal;text-align:start;line-height:125%;writing-mode:lr-tb;text-anchor:start;fill:#000000;fill-opacity:1;stroke:none;font-family:Sans;-inkscape-font-specification:Sans Bold" x="811.12927" y="205.86632" sodipodi:linespacing="125%" sodipodi:insensitive="true"><svg:tspan sodipodi:role="line" x="811.12927" y="205.86632">JessyInk video element</svg:tspan></svg:text>
    </svg:g>
  </g>
  <g inkscape:groupmode="layer" id="layer2" inkscape:label="Slide2" style="display:inline">
    <circle style="display:inline;fill:#000080;stroke:none" id="c1" cx="150" cy="450" r="50" inkscape:label="#path3736"/>
    <ellipse style="display:inline;fill:none;stroke:#ff0000;stroke-width:16" id="c2" cx="400" cy="450" rx="100" ry="50" inkscape:label="#path3738"/>
    <path style="display:inline;fill:#ffff00;stroke:#008000;stroke-width:16" id="c3" sodipodi:type="arc" sodipodi:cx="700" sodipodi:cy="450" sodipodi:rx="100" sodipodi:ry="50" sodipodi:start="0.59013865" sodipodi:end="5.6484511" d="m 783.08635,477.82381 a 100,50 0 0 1 -111.09848,20.17442 100,50 0 0 1 -71.96301,-46.88343 100,50 0 0 1 67.71127,-48.44091 100,50 0 0 1 112.7868,17.67793 L 700,450 Z" inkscape:label="#path3740"/>
    <path style="display:inline;fill:none;stroke:#000000;stroke-width:10;marker-start:url(#Arrow2Lstart)" d="M 100,600 200,700 300,600 400,700" id="p1" inkscape:connector-curvature="0" inkscape:label="#path3746"/>
    <path style="display:inline;fill:none;stroke:#000000;stroke-width:10" d="m 500,600 c 0,0 0,100 100,100 100,0 0,-100 100,-100 100,0 100,100 100,100" id="p2" inkscape:connector-curvature="0" inkscape:label="#path3748"/>
    <path sodipodi:type="star" style="display:inline;fill:#ffff00;stroke:#008000;stroke-width:10" id="s1" sodipodi:sides="5" sodipodi:cx="189.03001" sodipodi:cy="847.93945" sodipodi:r1="69.364868" sodipodi:r2="34.682434" sodipodi:arg1="0.63598373" sodipodi:arg2="1.2643023" inkscape:flatsided="false" inkscape:rounded="0" inkscape:randomized="0" d="m 244.8332,889.14005 -45.33887,-8.13446 -32.40428,32.73753 -6.27415,-45.63352 -41.14872,-20.70184 41.46124,-20.06861 6.97297,-45.53197 31.89861,33.23044 45.45824,-7.43847 -21.74681,40.60615 z" inkscape:transform-center-x="6.4673011" inkscape:transform-center-y="-0.16430137"/>
    <use style="display:inline" x="0" y="0" xlink:href="#s1" inkscape:transform-center-x="6.4673011" inkscape:transform-center-y="-0.16430137" id="u1" transform="translate(200,2.9962152)" width="100%" height="100%" inkscape:label="#use3808"/>
  </g>
  <g inkscape:label="Slide1" inkscape:groupmode="layer" id="layer1" style="display:inline">
    <text xml:space="preserve" style="font-size:14.66666698px;line-height:1.25;font-family:sans-serif;fill:#000000;stroke:none" x="100" y="100" id="t1" inkscape:label="#text12"><tspan sodipodi:role="line" id="tspan10" x="100" y="100">Hello World</tspan></text>
    <flowRoot xml:space="preserve" id="t4" style="font-size:40px;line-height:1.25;font-family:sans-serif;fill:#000000;stroke:none" transform="matrix(0.26458333,0,0,0.26458333,372.02961,28.904505)" inkscape:label="#flowRoot14"><flowRegion id="flowRegion16"><rect id="rect18" width="264.5675" height="262.16187" x="105.71429" y="219.66254"/></flowRegion><flowPara id="flowPara20" style="font-size:55.43307114px">flow text which wraps</flowPara></flowRoot>    <text xml:space="preserve" style="font-size:14.66666698px;line-height:1.25;font-family:sans-serif;fill:#000000;stroke:none" x="200" y="100" id="t2" inkscape:label="#text3727"><tspan sodipodi:role="line" id="tspan3725" x="200" y="100" style="font-size:14.66666698px">UPPER</tspan></text>
    <text xml:space="preserve" style="font-size:10.58333302px;line-height:1.25;font-family:sans-serif;fill:#000000;stroke:none" x="300" y="100" id="t3" inkscape:label="#text3735"><tspan sodipodi:role="line" id="tspan3733" x="300" y="100" style="font-size:14.66666698px">Multi line</tspan><tspan sodipodi:role="line" x="300" y="118.33334" id="tspan3737" style="font-size:14.66666698px">text</tspan><tspan sodipodi:role="line" x="300" y="136.66667" id="tspan3739" style="font-size:14.66666698px">FOO</tspan></text>
    <g id="t5" transform="translate(445.71038,-129.64807)" inkscape:label="#g3772">
      <text id="text3762" y="229.64807" x="54.289616" style="font-size:10.58333302px;line-height:1.25;font-family:sans-serif;fill:#000000;stroke:none" xml:space="preserve"><tspan y="229.64807" x="54.289616" id="tspan3760" sodipodi:role="line" style="font-size:14.66666698px">Grouped</tspan></text>
      <text id="text3766" y="259.64807" x="54.289619" style="font-size:14.66666698px;line-height:1.25;font-family:sans-serif;fill:#000000;stroke:none" xml:space="preserve"><tspan y="259.64807" x="54.289619" id="tspan3764" sodipodi:role="line" style="font-size:14.66666698px">text</tspan></text>
    </g>
    <rect style="fill:#000080;stroke:none" id="r1" width="100" height="100" x="100" y="200" inkscape:label="#rect3732"/>
    <rect style="fill:none;stroke:#ff0000;stroke-width:16" id="r2" width="200" height="100" x="300" y="200" inkscape:label="#rect3734"/>
    <rect style="fill:#ffff00;stroke:#008000;stroke-width:16" id="r3" width="200" height="100" x="600" y="200" ry="38.950798" rx="44.943226" inkscape:label="#rect3744"/>
  </g>
  <script ns1:version="1.5.5" id="JessyInk">// dummy
</script>
</svg>